{
  "project_info": {
    "project_number": "811658750482",
    "firebase_url": "https://boton-de-auxilio-27d63.firebaseio.com",
    "project_id": "boton-de-auxilio-27d63",
    "storage_bucket": "boton-de-auxilio-27d63.appspot.com"
  },
  "client": [
    {
      "client_info": {
        "mobilesdk_app_id": "1:811658750482:android:45aec7ee6a478c569a06cb",
        "android_client_info": {
          "package_name": "com.botondeauxilio.android"
        }
      },
      "oauth_client": [
        {
          "client_id": "811658750482-76r8kdkeorpfqvs2grc8j6e4du5lf52u.apps.googleusercontent.com",
          "client_type": 1,
          "android_info": {
            "package_name": "com.botondeauxilio.android",
            "certificate_hash": "32b7100e4705e24a1605ca15f776f87592d0412b"
          }
        },
        {
          "client_id": "811658750482-m5ngmuuvvba7tgs6d04p05vrk8r3jp98.apps.googleusercontent.com",
          "client_type": 3
        }
      ],
      "api_key": [
        {
          "current_key": "AIzaSyA8MiAaf_2YWrtwUIUfKkm5SQtCuTlRgdU"
        }
      ],
      "services": {
        "appinvite_service": {
          "other_platform_oauth_client": [
            {
              "client_id": "811658750482-m5ngmuuvvba7tgs6d04p05vrk8r3jp98.apps.googleusercontent.com",
              "client_type": 3
            }
          ]
        }
      }
    }
  ],
  "configuration_version": "1"
}